<?xml version="1.0" encoding="UTF-8"?>
<svg width="18px" height="22px" viewBox="0 0 18 22" version="1.1" xmlns="http://www.w3.org/2000/svg" xmlns:xlink="http://www.w3.org/1999/xlink">
    <!-- Generator: Sketch 48.2 (47327) - http://www.bohemiancoding.com/sketch -->
    <title>icon-tabbar-share</title>
    <desc>Created with Sketch.</desc>
    <defs></defs>
    <g id="Page-1" stroke="none" stroke-width="1" fill="none" fill-rule="evenodd">
        <g id="icon/navbar/icon-navbar-share" transform="translate(-3.000000, -1.000000)">
            <circle id="Oval" fill="#00F4FE" fill-rule="evenodd" cx="18" cy="4" r="3"></circle>
            <circle id="Oval-Copy" fill="#00F4FE" fill-rule="evenodd" cx="18" cy="20" r="3"></circle>
            <circle id="Oval-Copy-2" fill="#00F4FE" fill-rule="evenodd" cx="6" cy="12" r="3"></circle>
            <polyline id="Path-5" stroke="#00F4FE" stroke-width="1" points="18 4 5.5 12.25 18 20"></polyline>
        </g>
    </g>
</svg>